<mxfile host="app.diagrams.net" modified="2021-11-14T18:12:13.532Z" agent="5.0 (Windows NT 10.0; Win64; x64) AppleWebKit/537.36 (KHTML, like Gecko) Chrome/95.0.4638.69 Safari/537.36" etag="wwCCU2oIQo7hwZEpZorp" version="15.7.3" type="gitlab">
  <diagram id="6UydHK4NDUP39IJEEKT-" name="Page-1">
    <mxGraphModel dx="1038" dy="1690" grid="1" gridSize="10" guides="1" tooltips="1" connect="1" arrows="1" fold="1" page="1" pageScale="1" pageWidth="827" pageHeight="1169" math="0" shadow="0">
      <root>
        <mxCell id="0" />
        <mxCell id="1" parent="0" />
        <mxCell id="3VWgFjXt1Dd7vmDbUWtb-14" value="" style="rounded=0;whiteSpace=wrap;html=1;strokeColor=none;" parent="1" vertex="1">
          <mxGeometry x="120" y="30" width="650" height="490" as="geometry" />
        </mxCell>
        <mxCell id="3VWgFjXt1Dd7vmDbUWtb-5" value="" style="ellipse;whiteSpace=wrap;html=1;rotation=45;strokeColor=#000066;" parent="1" vertex="1">
          <mxGeometry x="347.07" y="102.93" width="440" height="260" as="geometry" />
        </mxCell>
        <mxCell id="3VWgFjXt1Dd7vmDbUWtb-4" value="" style="ellipse;whiteSpace=wrap;html=1;rotation=45;strokeColor=#FF0000;" parent="1" vertex="1">
          <mxGeometry x="137.5" y="246.89" width="330" height="232.07" as="geometry" />
        </mxCell>
        <mxCell id="3VWgFjXt1Dd7vmDbUWtb-1" value="" style="sketch=0;pointerEvents=1;shadow=0;dashed=0;html=1;strokeColor=none;labelPosition=center;verticalLabelPosition=bottom;verticalAlign=top;align=center;fillColor=#505050;shape=mxgraph.mscae.intune.intune_mobile_application_management" parent="1" vertex="1">
          <mxGeometry x="290" y="350" width="90" height="90" as="geometry" />
        </mxCell>
        <mxCell id="3VWgFjXt1Dd7vmDbUWtb-2" value="&lt;b&gt;&lt;font style=&quot;font-size: 19px&quot;&gt;Kontroler&lt;/font&gt;&lt;/b&gt;" style="rounded=0;whiteSpace=wrap;html=1;" parent="1" vertex="1">
          <mxGeometry x="414" y="130" width="120" height="60" as="geometry" />
        </mxCell>
        <mxCell id="3VWgFjXt1Dd7vmDbUWtb-3" value="&lt;b&gt;&lt;font style=&quot;font-size: 20px&quot;&gt;Model&lt;/font&gt;&lt;/b&gt;" style="rounded=0;whiteSpace=wrap;html=1;" parent="1" vertex="1">
          <mxGeometry x="560" y="270" width="120" height="60" as="geometry" />
        </mxCell>
        <mxCell id="3VWgFjXt1Dd7vmDbUWtb-6" value="&lt;b style=&quot;font-size: 21px;&quot;&gt;Pogled&lt;/b&gt;" style="text;html=1;strokeColor=none;fillColor=none;align=center;verticalAlign=middle;whiteSpace=wrap;rounded=0;fontSize=21;" parent="1" vertex="1">
          <mxGeometry x="230" y="260" width="60" height="30" as="geometry" />
        </mxCell>
        <mxCell id="3VWgFjXt1Dd7vmDbUWtb-7" value="" style="endArrow=classic;startArrow=classic;html=1;rounded=0;entryX=0.25;entryY=1;entryDx=0;entryDy=0;exitX=0.5;exitY=0;exitDx=0;exitDy=0;exitPerimeter=0;" parent="1" source="3VWgFjXt1Dd7vmDbUWtb-1" target="3VWgFjXt1Dd7vmDbUWtb-2" edge="1">
          <mxGeometry width="50" height="50" relative="1" as="geometry">
            <mxPoint x="390" y="300" as="sourcePoint" />
            <mxPoint x="440" y="250" as="targetPoint" />
          </mxGeometry>
        </mxCell>
        <mxCell id="3VWgFjXt1Dd7vmDbUWtb-8" value="" style="endArrow=classic;startArrow=classic;html=1;rounded=0;entryX=0.4;entryY=1.047;entryDx=0;entryDy=0;entryPerimeter=0;exitX=0.782;exitY=0.013;exitDx=0;exitDy=0;exitPerimeter=0;" parent="1" source="3VWgFjXt1Dd7vmDbUWtb-1" target="3VWgFjXt1Dd7vmDbUWtb-2" edge="1">
          <mxGeometry width="50" height="50" relative="1" as="geometry">
            <mxPoint x="390" y="320" as="sourcePoint" />
            <mxPoint x="454" y="200" as="targetPoint" />
          </mxGeometry>
        </mxCell>
        <mxCell id="3VWgFjXt1Dd7vmDbUWtb-9" value="" style="endArrow=classic;startArrow=classic;html=1;rounded=0;entryX=0.5;entryY=1;entryDx=0;entryDy=0;exitX=0.437;exitY=-0.007;exitDx=0;exitDy=0;exitPerimeter=0;" parent="1" source="3VWgFjXt1Dd7vmDbUWtb-3" target="3VWgFjXt1Dd7vmDbUWtb-2" edge="1">
          <mxGeometry width="50" height="50" relative="1" as="geometry">
            <mxPoint x="375" y="340" as="sourcePoint" />
            <mxPoint x="464" y="210" as="targetPoint" />
          </mxGeometry>
        </mxCell>
        <mxCell id="3VWgFjXt1Dd7vmDbUWtb-10" value="" style="endArrow=classic;html=1;rounded=0;entryX=0.75;entryY=0;entryDx=0;entryDy=0;exitX=0.75;exitY=1;exitDx=0;exitDy=0;" parent="1" source="3VWgFjXt1Dd7vmDbUWtb-2" target="3VWgFjXt1Dd7vmDbUWtb-3" edge="1">
          <mxGeometry width="50" height="50" relative="1" as="geometry">
            <mxPoint x="390" y="300" as="sourcePoint" />
            <mxPoint x="440" y="250" as="targetPoint" />
          </mxGeometry>
        </mxCell>
        <mxCell id="3VWgFjXt1Dd7vmDbUWtb-11" value="&lt;b style=&quot;font-size: 20px;&quot;&gt;HTTP ZAHTJEVI&lt;/b&gt;" style="text;html=1;strokeColor=none;fillColor=none;align=center;verticalAlign=middle;whiteSpace=wrap;rounded=0;fontSize=20;" parent="1" vertex="1">
          <mxGeometry x="285" y="140" width="100" height="90" as="geometry" />
        </mxCell>
        <mxCell id="3VWgFjXt1Dd7vmDbUWtb-12" value="&lt;b style=&quot;font-size: 20px;&quot;&gt;KLIJENT&lt;/b&gt;" style="text;html=1;strokeColor=none;fillColor=none;align=center;verticalAlign=middle;whiteSpace=wrap;rounded=0;fontSize=20;" parent="1" vertex="1">
          <mxGeometry x="190" y="370" width="90" height="30" as="geometry" />
        </mxCell>
        <mxCell id="3VWgFjXt1Dd7vmDbUWtb-13" value="&lt;b style=&quot;font-size: 15px;&quot;&gt;POSLUŽITELJ&lt;/b&gt;" style="text;html=1;strokeColor=none;fillColor=none;align=center;verticalAlign=middle;whiteSpace=wrap;rounded=0;strokeWidth=3;fontSize=15;" parent="1" vertex="1">
          <mxGeometry x="560" y="150" width="120" height="60" as="geometry" />
        </mxCell>
      </root>
    </mxGraphModel>
  </diagram>
</mxfile>
